<?xml version="1.0" encoding="utf-8"?>
<!-- Generator: Adobe Illustrator 24.1.0, SVG Export Plug-In . SVG Version: 6.00 Build 0)  -->
<svg version="1.1" id="Layer_1" xmlns="http://www.w3.org/2000/svg" xmlns:xlink="http://www.w3.org/1999/xlink" x="0px" y="0px"
	 viewBox="0 0 355.15 67.84" style="enable-background:new 0 0 355.15 67.84;" xml:space="preserve">
<style type="text/css">
	.st0{fill:#231F20;}
	.st1{fill:none;stroke:#231F20;stroke-width:3.0165;stroke-linecap:round;stroke-linejoin:round;}
	.st2{fill:none;stroke:#231F20;stroke-width:3.0165;stroke-linecap:round;stroke-linejoin:round;stroke-dasharray:0,5.8658;}
	.st3{fill:none;stroke:#231F20;stroke-width:2.011;stroke-miterlimit:10;}
</style>
<g>
	<path class="st0" d="M74.77,16.28h13.29c2.22,0,4.37,0.34,6.43,1.02c2.06,0.68,3.89,1.72,5.48,3.12c1.59,1.4,2.86,3.15,3.81,5.26
		s1.43,4.6,1.43,7.46c0,2.89-0.55,5.39-1.64,7.5c-1.1,2.11-2.51,3.86-4.24,5.24c-1.73,1.38-3.65,2.41-5.76,3.1
		c-2.11,0.68-4.18,1.02-6.22,1.02H74.77V16.28z M85.25,44.57c1.87,0,3.64-0.21,5.31-0.64c1.67-0.43,3.12-1.1,4.36-2
		c1.24-0.91,2.22-2.08,2.93-3.53c0.71-1.44,1.07-3.2,1.07-5.26c0-2.03-0.32-3.78-0.95-5.24c-0.64-1.46-1.52-2.64-2.64-3.55
		c-1.13-0.9-2.46-1.57-4-2c-1.54-0.43-3.23-0.64-5.07-0.64h-5.48v22.87H85.25z"/>
	<path class="st0" d="M109.4,16.28h9.15l9,23.63l9.1-23.63h9.05v33.73h-5.72V21.99h-0.1l-10.24,28.01h-4.19l-10.24-28.01h-0.1v28.01
		h-5.72V16.28z"/>
	<path class="st0" d="M151.7,16.28h7.96L176,41.34h0.1V16.28h6v33.73h-7.62L157.8,24.14h-0.1v25.87h-6V16.28z"/>
	<path class="st0" d="M192.96,40.57c0.19,1.71,0.86,3.05,2,4c1.14,0.95,2.52,1.43,4.14,1.43c1.43,0,2.63-0.29,3.6-0.88
		c0.97-0.59,1.82-1.33,2.55-2.22h0l4.1,3.1c-1.33,1.65-2.83,2.83-4.48,3.53c-1.65,0.7-3.38,1.05-5.19,1.05
		c-1.71,0-3.33-0.29-4.86-0.86c-1.52-0.57-2.84-1.38-3.95-2.43c-1.11-1.05-1.99-2.31-2.64-3.79c-0.65-1.48-0.98-3.12-0.98-4.93
		s0.33-3.45,0.98-4.93c0.65-1.48,1.53-2.74,2.64-3.79c1.11-1.05,2.43-1.86,3.95-2.43c1.52-0.57,3.14-0.86,4.86-0.86
		c1.59,0,3.04,0.28,4.36,0.83c1.32,0.56,2.45,1.36,3.38,2.41s1.67,2.34,2.19,3.88c0.52,1.54,0.79,3.31,0.79,5.31v1.57L192.96,40.57z
		 M204.68,36.29c-0.03-1.68-0.56-3.01-1.57-3.98c-1.02-0.97-2.43-1.45-4.24-1.45c-1.71,0-3.07,0.49-4.07,1.48
		c-1,0.98-1.61,2.3-1.83,3.95L204.68,36.29z"/>
	<path class="st0" d="M212.35,32v-4.86h4.72v-6.62h5.72v6.62h6.29V32h-6.29v10c0,1.14,0.21,2.05,0.64,2.72c0.43,0.67,1.28,1,2.55,1
		c0.51,0,1.06-0.06,1.67-0.17l1.4-0.26c0.02,0,0.03,0.01,0.03,0.03l0,4.49c-0.6,0.29-1.34,0.48-2.22,0.6
		c-0.87,0.11-1.64,0.17-2.31,0.17c-1.52,0-2.77-0.17-3.74-0.5c-0.97-0.33-1.73-0.84-2.29-1.52c-0.56-0.68-0.94-1.53-1.14-2.55
		c-0.21-1.02-0.31-2.19-0.31-3.53V32H212.35z"/>
	<path class="st0" d="M230.69,27.14h6.19l4.95,16.01h0.1l4.62-16.01h6.19l4.95,16.01h0.1l4.76-16.01h5.76l-7.77,22.87h-5.67
		l-5.43-15.63h-0.1l-4.81,15.63h-5.91L230.69,27.14z"/>
	<path class="st0" d="M269.85,38.57c0-1.81,0.33-3.45,0.98-4.93c0.65-1.48,1.53-2.74,2.64-3.79c1.11-1.05,2.43-1.86,3.95-2.43
		c1.52-0.57,3.14-0.86,4.86-0.86c1.71,0,3.33,0.29,4.86,0.86c1.52,0.57,2.84,1.38,3.95,2.43c1.11,1.05,1.99,2.31,2.64,3.79
		c0.65,1.48,0.98,3.12,0.98,4.93s-0.33,3.45-0.98,4.93c-0.65,1.48-1.53,2.74-2.64,3.79c-1.11,1.05-2.43,1.86-3.95,2.43
		c-1.52,0.57-3.14,0.86-4.86,0.86c-1.72,0-3.34-0.29-4.86-0.86c-1.52-0.57-2.84-1.38-3.95-2.43c-1.11-1.05-1.99-2.31-2.64-3.79
		C270.17,42.03,269.85,40.38,269.85,38.57z M275.56,38.57c0,0.89,0.15,1.75,0.45,2.57c0.3,0.83,0.75,1.56,1.33,2.19
		c0.59,0.64,1.29,1.14,2.12,1.52c0.83,0.38,1.76,0.57,2.81,0.57c1.05,0,1.98-0.19,2.81-0.57c0.83-0.38,1.53-0.89,2.12-1.52
		c0.59-0.64,1.03-1.36,1.33-2.19c0.3-0.83,0.45-1.68,0.45-2.57c0-0.89-0.15-1.75-0.45-2.57c-0.3-0.83-0.75-1.56-1.33-2.19
		c-0.59-0.64-1.29-1.14-2.12-1.52c-0.83-0.38-1.76-0.57-2.81-0.57c-1.05,0-1.99,0.19-2.81,0.57c-0.83,0.38-1.53,0.89-2.12,1.52
		c-0.59,0.64-1.03,1.37-1.33,2.19C275.71,36.83,275.56,37.68,275.56,38.57z"/>
	<path class="st0" d="M299.33,27.14h5.72v3.62h0.1c0.64-1.33,1.54-2.37,2.72-3.1c1.17-0.73,2.52-1.1,4.05-1.1
		c0.35,0,0.69,0.03,1.02,0.1c0.33,0.06,0.67,0.14,1.02,0.24v5.43c0,0.01-0.01,0.02-0.03,0.02l-1.38-0.24
		c-0.46-0.08-0.91-0.12-1.36-0.12c-1.33,0-2.41,0.25-3.22,0.74c-0.81,0.49-1.43,1.06-1.86,1.69c-0.43,0.64-0.71,1.27-0.86,1.91
		c-0.14,0.64-0.21,1.11-0.21,1.43v12.24h-5.72V27.14z"/>
	<path class="st0" d="M317.15,13.99h5.72v22.63l8.81-9.48h7.34l-9.81,10.39l10.43,12.48h-7.57l-9.1-11.67h-0.1v11.67h-5.72V13.99z"
		/>
</g>
<g>
	<g>
		
			<rect x="46.9" y="42.05" transform="matrix(-0.8577 -0.5142 0.5142 -0.8577 67.8738 104.4418)" class="st0" width="2.98" height="1.56"/>
		
			<rect x="48.59" y="39.22" transform="matrix(0.8577 0.5142 -0.5142 0.8577 27.6967 -20.0584)" class="st0" width="2.98" height="1.56"/>
		
			<rect x="50.28" y="36.4" transform="matrix(-0.8577 -0.5142 0.5142 -0.8577 77.0661 95.6921)" class="st0" width="2.98" height="1.56"/>
		
			<rect x="51.98" y="33.58" transform="matrix(0.8577 0.5142 -0.5142 0.8577 25.275 -22.6026)" class="st0" width="2.98" height="1.56"/>
		
			<rect x="53.67" y="30.75" transform="matrix(-0.8577 -0.5142 0.5142 -0.8577 86.2584 86.9425)" class="st0" width="2.98" height="1.56"/>
		
			<rect x="55.36" y="27.93" transform="matrix(0.8577 0.5142 -0.5142 0.8577 22.8533 -25.1469)" class="st0" width="2.98" height="1.56"/>
		
			<rect x="57.05" y="25.11" transform="matrix(-0.8577 -0.5142 0.5142 -0.8577 95.4507 78.1929)" class="st0" width="2.98" height="1.56"/>
		
			<rect x="58.75" y="22.28" transform="matrix(-0.8577 -0.5142 0.5142 -0.8577 100.0469 73.8181)" class="st0" width="2.98" height="1.56"/>
	</g>
	<g>
		<g>
			<line class="st1" x1="62.22" y1="17.71" x2="62.22" y2="17.71"/>
			<line class="st2" x1="56.36" y1="17.71" x2="29.96" y2="17.71"/>
			<line class="st1" x1="27.03" y1="17.71" x2="27.03" y2="17.71"/>
		</g>
	</g>
	<line class="st3" x1="26.62" y1="17.71" x2="44.22" y2="48.19"/>
	<circle class="st0" cx="26.04" cy="17.71" r="3.53"/>
	<circle class="st0" cx="44.8" cy="48.19" r="4.4"/>
	<circle class="st0" cx="63.56" cy="17.71" r="4"/>
</g>
</svg>
